{
    "title": { 
        "type" : "string" 
    }, 
    "singer": { 
        "type" : "string" 
    }, 
    "lyrics": { 
        "type" : "string" 
    }, 
    "chords": { 
        "type" : "string" 
    },
    "week_number": { 
        "type": "integer" 
    },
    "user_id": { 
        "type": "integer" 
    },
    "created_at": { 
        "type" : "string", "format": "date-time" 
    },
    "updated_at": { 
        "type" : "string", "format": "date-time" 
    },
    "week_day": { 
        "type": "integer" 
    }
}
